module gitlab.com/romaneso/cicd_ex2

go 1.14

require (
	github.com/gorilla/mux v1.7.4
	github.com/lib/pq v1.4.0
	github.com/securego/gosec v0.0.0-20200401082031-e946c8c39989 // indirect
	github.com/stripe/safesql v0.2.0 // indirect
)
